{
    "ql": {
        "lp": true,
        "vvd": false,
        "d66": true,
        "pvv": true,
        "cda": false,
        "sp": true,
        "pvda": false,
        "gl": false,
        "pvdd": true,
        "cu": false,
        "fvd": false,
        "bbb": true,
        "sgp": true,
        "denk": true,
        "volt": true,
        "ja21": false,
        "bij1": true,
        "50plus": true,
        "bvnl": false,
        "pp": true,
        "nsc": false,
        "ppvb": true,
        "opnl": true,
        "pvdr": true,
        "hvv": false,
        "forza": false,
        "dg": true,
        "svn": false,
        "jl": false,
        "pvds": false,
        "splr": false,
        "co": false,
        "nlplan": false,
        "lef": false,
        "soc": true
    },
    "q2": {
        "lp": true,
        "vvd": true,
        "d66": false,
        "pvv": false,
        "cda": false,
        "sp": false,
        "pvda": false,
        "gl": false,
        "pvdd": false,
        "cu": false,
        "fvd": true,
        "bbb": false,
        "sgp": true,
        "denk": false,
        "volt": false,
        "ja21": true,
        "bij1": false,
        "50plus": false,
        "bvnl": true,
        "pp": false,
        "nsc": false,
        "ppvb": true,
        "opnl": false,
        "pvdr": false,
        "hvv": false,
        "forza": false,
        "dg": true,
        "svn": false,
        "jl": false,
        "pvds": false,
        "splr": false,
        "co": false,
        "nlplan": false,
        "lef": false,
        "soc": false
    }
}